<?xml version="1.0" encoding="UTF-8" standalone="no"?>
<!-- Created with Inkscape (http://www.inkscape.org/) -->

<svg
   width="126.54071"
   height="126.12968"
   id="svg2"
   sodipodi:version="0.32"
   inkscape:version="1.1.2 (0a00cf5339, 2022-02-04)"
   sodipodi:docname="murat-wiki.svg"
   version="1.1"
   inkscape:output_extension="org.inkscape.output.svg.inkscape"
   inkscape:export-filename="/home/aiscarvalho/Desktop/murat-wiki.png"
   inkscape:export-xdpi="172.8"
   inkscape:export-ydpi="172.8"
   xmlns:inkscape="http://www.inkscape.org/namespaces/inkscape"
   xmlns:sodipodi="http://sodipodi.sourceforge.net/DTD/sodipodi-0.dtd"
   xmlns:xlink="http://www.w3.org/1999/xlink"
   xmlns="http://www.w3.org/2000/svg"
   xmlns:svg="http://www.w3.org/2000/svg"
   xmlns:rdf="http://www.w3.org/1999/02/22-rdf-syntax-ns#"
   xmlns:cc="http://creativecommons.org/ns#"
   xmlns:dc="http://purl.org/dc/elements/1.1/">
  <defs
     id="defs4">
    <inkscape:perspective
       sodipodi:type="inkscape:persp3d"
       inkscape:vp_x="0 : 523.79385 : 1"
       inkscape:vp_y="0 : 1000 : 0"
       inkscape:vp_z="744.09448 : 523.79385 : 1"
       inkscape:persp3d-origin="372.04724 : 348.40015 : 1"
       id="perspective100" />
    <linearGradient
       id="linearGradient2624">
      <stop
         style="stop-color:#3a9030;stop-opacity:0.83673471;"
         offset="0"
         id="stop2626" />
      <stop
         style="stop-color:#3d9c32;stop-opacity:0.79591835;"
         offset="1"
         id="stop2628" />
    </linearGradient>
    <linearGradient
       id="linearGradient2612">
      <stop
         style="stop-color:#25901b;stop-opacity:0.83673471;"
         offset="0"
         id="stop2614" />
      <stop
         style="stop-color:#25901b;stop-opacity:0.37755102;"
         offset="1"
         id="stop2616" />
    </linearGradient>
    <linearGradient
       id="linearGradient2600">
      <stop
         style="stop-color:#e32525;stop-opacity:0.81632656;"
         offset="0"
         id="stop2602" />
      <stop
         style="stop-color:#e32525;stop-opacity:0.5714286;"
         offset="1"
         id="stop2604" />
    </linearGradient>
    <marker
       inkscape:stockid="TriangleOutL"
       orient="auto"
       refY="0"
       refX="0"
       id="TriangleOutL"
       style="overflow:visible">
      <path
         id="path2488"
         d="M 5.77,0 -2.88,5 V -5 Z"
         style="fill-rule:evenodd;stroke:#000000;stroke-width:1pt;marker-start:none"
         transform="scale(0.8)" />
    </marker>
    <marker
       inkscape:stockid="Arrow2Lstart"
       orient="auto"
       refY="0"
       refX="0"
       id="Arrow2Lstart"
       style="overflow:visible">
      <path
         id="path2571"
         style="font-size:12px;fill-rule:evenodd;stroke-width:0.625;stroke-linejoin:round"
         d="M 8.7185878,4.0337352 -2.2072895,0.01601326 8.7185884,-4.0017078 c -1.7454984,2.3720609 -1.7354408,5.6174519 -6e-7,8.035443 z"
         transform="matrix(1.1,0,0,1.1,-5.5,0)" />
    </marker>
    <linearGradient
       id="linearGradient2408">
      <stop
         id="stop2410"
         offset="0"
         style="stop-color:#000000;stop-opacity:0.17346939;" />
      <stop
         id="stop2412"
         offset="1"
         style="stop-color:#c7cec2;stop-opacity:0;" />
    </linearGradient>
    <linearGradient
       id="linearGradient2389">
      <stop
         style="stop-color:#000000;stop-opacity:0.17346939;"
         offset="0"
         id="stop2391" />
      <stop
         style="stop-color:#c7cec2;stop-opacity:0;"
         offset="1"
         id="stop2393" />
    </linearGradient>
    <linearGradient
       id="linearGradient2370">
      <stop
         style="stop-color:#fbfaf9;stop-opacity:1;"
         offset="0"
         id="stop2372" />
      <stop
         style="stop-color:#e9dac7;stop-opacity:1;"
         offset="1"
         id="stop2374" />
    </linearGradient>
    <linearGradient
       id="linearGradient2364">
      <stop
         id="stop2366"
         offset="0"
         style="stop-color:#fbf6f0;stop-opacity:1;" />
      <stop
         id="stop2368"
         offset="1"
         style="stop-color:#e9dac7;stop-opacity:1;" />
    </linearGradient>
    <linearGradient
       id="linearGradient2348">
      <stop
         style="stop-color:#fbf6f0;stop-opacity:1;"
         offset="0"
         id="stop2350" />
      <stop
         style="stop-color:#e9dac7;stop-opacity:1;"
         offset="1"
         id="stop2352" />
    </linearGradient>
    <linearGradient
       id="linearGradient2332">
      <stop
         style="stop-color:#ede1ae;stop-opacity:1;"
         offset="0"
         id="stop2334" />
      <stop
         style="stop-color:#fefdfa;stop-opacity:1;"
         offset="1"
         id="stop2336" />
    </linearGradient>
    <linearGradient
       id="linearGradient2249">
      <stop
         style="stop-color:#00a423;stop-opacity:1;"
         offset="0"
         id="stop2251" />
      <stop
         style="stop-color:#00b427;stop-opacity:1;"
         offset="1"
         id="stop2253" />
    </linearGradient>
    <linearGradient
       id="linearGradient2229">
      <stop
         id="stop2231"
         offset="0"
         style="stop-color:#00b62b;stop-opacity:1;" />
      <stop
         id="stop2233"
         offset="1"
         style="stop-color:#a1d784;stop-opacity:1;" />
    </linearGradient>
    <linearGradient
       id="linearGradient2213">
      <stop
         style="stop-color:#000000;stop-opacity:1;"
         offset="0"
         id="stop2215" />
      <stop
         style="stop-color:#000000;stop-opacity:0;"
         offset="1"
         id="stop2217" />
    </linearGradient>
    <linearGradient
       id="linearGradient2360">
      <stop
         style="stop-color:#d69c00;stop-opacity:1;"
         offset="0"
         id="stop2362" />
      <stop
         style="stop-color:#ffe658;stop-opacity:1;"
         offset="1"
         id="stop2364" />
    </linearGradient>
    <linearGradient
       id="linearGradient2352">
      <stop
         id="stop2354"
         offset="0"
         style="stop-color:#ce411e;stop-opacity:1;" />
      <stop
         id="stop2356"
         offset="1"
         style="stop-color:#ecad8d;stop-opacity:1;" />
    </linearGradient>
    <linearGradient
       id="linearGradient2336">
      <stop
         style="stop-color:#8f2a15;stop-opacity:1;"
         offset="0"
         id="stop2338" />
      <stop
         style="stop-color:#c8381b;stop-opacity:1;"
         offset="1"
         id="stop2340" />
    </linearGradient>
    <linearGradient
       inkscape:collect="always"
       xlink:href="#linearGradient2336"
       id="linearGradient2342"
       x1="219.21262"
       y1="189.01556"
       x2="286.22665"
       y2="189.01556"
       gradientUnits="userSpaceOnUse" />
    <linearGradient
       inkscape:collect="always"
       xlink:href="#linearGradient2352"
       id="linearGradient2350"
       x1="219.66267"
       y1="192.73286"
       x2="277.8761"
       y2="192.73286"
       gradientUnits="userSpaceOnUse" />
    <radialGradient
       inkscape:collect="always"
       xlink:href="#linearGradient2360"
       id="radialGradient2366"
       cx="224.41418"
       cy="212.80016"
       fx="224.41418"
       fy="212.80016"
       r="8.6813803"
       gradientTransform="matrix(1,0,0,0.984179,0,3.366635)"
       gradientUnits="userSpaceOnUse" />
    <filter
       inkscape:collect="always"
       style="color-interpolation-filters:sRGB"
       id="filter18705"
       x="-0.0202215"
       y="-0.015689853"
       width="1.040443"
       height="1.0313797">
      <feGaussianBlur
         inkscape:collect="always"
         stdDeviation="0.75481088"
         id="feGaussianBlur18707" />
    </filter>
  </defs>
  <sodipodi:namedview
     id="base"
     pagecolor="#ffffff"
     bordercolor="#666666"
     borderopacity="1.0"
     inkscape:pageopacity="0.0"
     inkscape:pageshadow="2"
     inkscape:zoom="2.6408296"
     inkscape:cx="80.656473"
     inkscape:cy="80.277804"
     inkscape:document-units="px"
     inkscape:current-layer="layer3"
     inkscape:window-width="1678"
     inkscape:window-height="1007"
     inkscape:window-x="0"
     inkscape:window-y="21"
     showguides="true"
     inkscape:guide-bbox="true"
     showgrid="false"
     inkscape:window-maximized="0"
     inkscape:pagecheckerboard="0"
     fit-margin-top="2"
     fit-margin-left="2"
     fit-margin-right="2"
     fit-margin-bottom="2"
     lock-margins="true" />
  <metadata
     id="metadata7">
    <rdf:RDF>
      <cc:Work
         rdf:about="">
        <dc:format>image/svg+xml</dc:format>
        <dc:type
           rdf:resource="http://purl.org/dc/dcmitype/StillImage" />
      </cc:Work>
    </rdf:RDF>
  </metadata>
  <g
     inkscape:groupmode="layer"
     id="layer3"
     inkscape:label="paper"
     style="display:inline"
     transform="translate(-160.88793,-161.32105)">
    <g
       id="g18977"
       transform="matrix(0.93328273,0,0,0.93327919,14.955228,14.971208)"
       style="stroke-width:1.07149">
      <path
         style="font-variation-settings:normal;display:inline;opacity:1;vector-effect:none;fill:#000000;fill-opacity:0.317803;fill-rule:evenodd;stroke:none;stroke-width:1.07592px;stroke-linecap:butt;stroke-linejoin:miter;stroke-miterlimit:4;stroke-dasharray:none;stroke-dashoffset:0;stroke-opacity:1;-inkscape-stroke:none;filter:url(#filter18705);stop-color:#000000;stop-opacity:1"
         d="m 181.20033,184.08731 79.84173,-19.51687 26.61391,101.72428 -82.50312,21.58684 z"
         id="path18929"
         sodipodi:nodetypes="ccccc" />
      <path
         style="display:inline;fill:#fdd000;fill-opacity:1;fill-rule:evenodd;stroke:none;stroke-width:1.07149px;stroke-linecap:butt;stroke-linejoin:miter;stroke-opacity:1"
         d="m 179.20033,182.08731 79.84173,-19.51687 26.61391,101.72428 -82.50312,21.58684 z"
         id="rect1425"
         sodipodi:nodetypes="ccccc" />
      <path
         style="font-variation-settings:normal;display:inline;opacity:1;vector-effect:none;fill:#000000;fill-opacity:0.317803;fill-rule:evenodd;stroke:none;stroke-width:1.07592px;stroke-linecap:butt;stroke-linejoin:miter;stroke-miterlimit:4;stroke-dasharray:none;stroke-dashoffset:0;stroke-opacity:1;-inkscape-stroke:none;filter:url(#filter18705);stop-color:#000000;stop-opacity:1"
         d="m 160.50792,177.4471 70.03648,-10.79064 19.54867,107.16522 -70.92362,10.49492 z"
         id="path18871"
         sodipodi:nodetypes="ccccc" />
      <path
         style="display:inline;fill:#fdd000;fill-opacity:1;fill-rule:evenodd;stroke:none;stroke-width:0.772539px;stroke-linecap:butt;stroke-linejoin:miter;stroke-opacity:1"
         d="m 158.50792,175.4471 70.03648,-10.79064 19.54867,107.16522 -70.92362,10.49492 z"
         id="rect1422"
         sodipodi:nodetypes="ccccc" />
      <path
         style="display:inline;fill:#000000;fill-opacity:0.317803;fill-rule:evenodd;stroke:none;stroke-width:1.07592px;stroke-linecap:butt;stroke-linejoin:miter;stroke-opacity:1;filter:url(#filter18705)"
         d="m 175.05132,168.37411 85.25906,-7.41863 8.95091,110.11105 -84.37193,5.34867 z"
         id="path18587"
         sodipodi:nodetypes="ccccc" />
      <path
         style="display:inline;fill:#ffffff;fill-opacity:1;fill-rule:evenodd;stroke:none;stroke-width:1.07592px;stroke-linecap:butt;stroke-linejoin:miter;stroke-opacity:1"
         d="m 173.05132,166.37411 85.25906,-7.41863 8.95091,110.11105 -84.37193,5.34867 z"
         id="rect1419"
         sodipodi:nodetypes="ccccc" />
      <path
         id="text2382"
         d="m 187.21531,197.03585 -1.92683,-20.09242 5.32518,-0.51068 0.22663,2.36319 -2.47012,0.23688 1.47359,15.36605 2.47011,-0.23688 0.22663,2.36318 -5.32519,0.51068 m 7.31412,-0.70141 -1.92684,-20.09242 5.32518,-0.51068 0.22663,2.36319 -2.47011,0.23688 1.47358,15.36604 2.47011,-0.23688 0.22662,2.36319 -5.32517,0.51068 m 5.40866,-20.79589 5.78499,-0.55477 c 1.30455,-0.12508 2.30858,-0.12065 3.01209,0.0133 0.94558,0.18272 1.77945,0.58836 2.50163,1.21695 0.72214,0.62861 1.30251,1.42907 1.7411,2.4014 0.43787,0.96522 0.72723,2.18209 0.86807,3.65061 0.12373,1.29031 0.07,2.41778 -0.16125,3.3824 -0.28271,1.17821 -0.75379,2.15505 -1.41322,2.93052 -0.49766,0.5873 -1.19906,1.07543 -2.1042,1.4644 -0.67743,0.28798 -1.60071,0.48804 -2.76982,0.60016 l -5.95607,0.57118 -1.50332,-15.67616 m 3.41948,2.34837 0.99572,10.38304 2.36318,-0.22663 c 0.88396,-0.0848 1.5172,-0.19583 1.89972,-0.33326 0.50095,-0.17753 0.90426,-0.43563 1.20993,-0.77431 0.31277,-0.33934 0.5426,-0.86858 0.68947,-1.58771 0.14617,-0.72625 0.16116,-1.69533 0.045,-2.90722 -0.11622,-1.21188 -0.31238,-2.13193 -0.58844,-2.76015 -0.27608,-0.6282 -0.62402,-1.10562 -1.04383,-1.43229 -0.41983,-0.32663 -0.93174,-0.52575 -1.53572,-0.59734 -0.45156,-0.0574 -1.32249,-0.0242 -2.6128,0.0995 l -1.42218,0.13638 m 16.14455,11.59579 -5.24592,-15.31724 3.24002,-0.31072 3.39583,10.54137 1.83313,-11.04282 3.76398,-0.36096 3.7982,10.68625 1.35589,-11.18052 3.18656,-0.30559 -2.30344,16.04122 -3.35765,0.32199 -4.24629,-11.42025 -1.98781,12.0181 -3.4325,0.32917 m 21.15545,-17.8491 1.92683,20.09242 -5.32518,0.51068 -0.22662,-2.36319 2.47011,-0.23688 -1.47563,-15.38744 -2.47012,0.23689 -0.22457,-2.3418 5.32518,-0.51068 m 7.31411,-0.70141 1.92684,20.09242 -5.32519,0.51068 -0.22663,-2.36319 2.47012,-0.23688 -1.47564,-15.38744 -2.47011,0.23688 -0.22458,-2.34179 5.32519,-0.51068"
         style="font-style:normal;font-weight:normal;font-size:12px;line-height:125%;font-family:'Bitstream Vera Sans';font-variation-settings:normal;display:inline;opacity:1;vector-effect:none;fill:#b00031;fill-opacity:1;stroke:none;stroke-width:1.03858;stroke-linecap:butt;stroke-linejoin:miter;stroke-miterlimit:4;stroke-dasharray:none;stroke-dashoffset:0;stroke-opacity:1;-inkscape-stroke:none;stop-color:#000000;stop-opacity:1" />
      <path
         id="path936"
         style="font-variation-settings:normal;vector-effect:none;fill:#000000;fill-opacity:1;stroke-width:1.03858;stroke-linecap:butt;stroke-linejoin:miter;stroke-miterlimit:4;stroke-dasharray:none;stroke-dashoffset:0;stroke-opacity:1;-inkscape-stroke:none;stop-color:#000000"
         d="m 214.9994,266.77228 c -0.16057,-0.37492 -0.40843,-1.04228 -0.55048,-1.48307 -0.14199,-0.4407 -0.36671,-1.07019 -0.49926,-1.39869 -0.14179,-0.35138 -0.23765,-1.01072 -0.23274,-1.6019 0.008,-0.91763 0.052,-1.05393 0.50789,-1.57366 0.65374,-0.74456 0.81865,-1.16625 1.42998,-3.65591 0.88803,-3.61664 0.85596,-3.99491 -0.36608,-4.31664 -0.72647,-0.19128 -3.03057,-0.99126 -5.94372,-2.06375 -0.99314,-0.36561 -3.23813,-1.38627 -4.98887,-2.26815 -1.75074,-0.88185 -3.34577,-1.60336 -3.54451,-1.60336 -0.19875,0 -0.56483,0.15235 -0.81355,0.3386 -0.96467,0.72222 -3.9344,4.06319 -4.76333,5.35878 -0.7161,1.11918 -1.08594,1.52191 -2.10662,2.29384 -1.34369,1.01622 -1.88553,1.28903 -2.26832,1.14213 -0.36324,-0.13945 -0.84923,-1.0151 -0.85158,-1.5344 -0.001,-0.24828 -0.17054,-0.81364 -0.37676,-1.25636 -0.26384,-0.56675 -0.37472,-1.06341 -0.37472,-1.67859 0,-0.77516 0.0589,-0.9435 0.51759,-1.49317 0.28464,-0.34079 0.56061,-0.7365 0.61313,-0.87947 0.0526,-0.14297 0.78453,-0.86908 1.62666,-1.6136 0.84213,-0.7445 1.78258,-1.62479 2.08989,-1.95616 1.09916,-1.18522 2.67644,-3.29591 2.67644,-3.58157 0,-0.15998 -0.30551,-0.75042 -0.67892,-1.31207 -0.89118,-1.34055 -1.3416,-2.38526 -1.90495,-4.4184 -0.58179,-2.09969 -0.61804,-2.1658 -1.25406,-2.2851 -0.81929,-0.15373 -1.2517,0.0348 -2.24032,0.97899 -0.53933,0.51499 -1.38148,1.10871 -2.03932,1.43801 -0.61627,0.30851 -1.37671,0.72263 -1.68983,0.92028 -0.31317,0.19774 -0.69862,0.3594 -0.85669,0.3594 -0.32787,0 -0.77066,-0.84364 -1.05826,-2.01649 -0.0995,-0.40564 -0.27891,-0.92703 -0.39866,-1.15872 -0.11975,-0.23164 -0.21776,-0.58557 -0.21776,-0.78649 0,-0.5595 0.41301,-1.42286 0.72849,-1.523 0.15509,-0.0493 0.41015,-0.37581 0.56648,-0.72571 0.28464,-0.63687 1.19319,-1.61216 1.50307,-1.61349 0.0906,-4.5e-4 0.28158,-0.12967 0.42417,-0.28739 0.14493,-0.15999 0.53721,-0.31862 0.88855,-0.35919 1.06891,-0.12321 3.68368,-1.19726 3.94523,-1.62048 0.0561,-0.0909 0.29421,-1.49731 0.52881,-3.1252 0.23458,-1.62789 0.53118,-3.29837 0.65914,-3.71218 0.44448,-1.43755 0.37007,-1.54622 -2.04362,-2.98612 -0.90624,-0.54063 -1.63192,-1.08278 -1.74315,-1.30238 -1.3629,-2.69038 -1.50096,-3.54288 -0.88688,-5.47662 0.38778,-1.22105 0.90415,-1.95864 1.79402,-2.56252 0.48373,-0.32836 0.73762,-0.38736 1.66453,-0.38736 1.03167,0 1.1188,0.0266 1.53568,0.47209 1.08283,1.15668 3.74389,3.30181 4.04269,3.25888 0.18639,-0.0266 0.59077,-0.45494 1.0188,-1.07886 1.11137,-1.6197 2.13803,-2.7184 3.55372,-3.80299 1.61385,-1.23642 1.83323,-1.47853 1.83323,-2.02324 0,-0.23773 -0.24457,-1.12743 -0.54344,-1.97711 -0.34255,-0.97395 -0.58378,-1.98971 -0.65257,-2.74865 -0.0686,-0.75592 -0.26084,-1.56767 -0.51676,-2.18187 -0.2242,-0.53789 -0.44708,-1.32661 -0.49543,-1.75258 -0.0774,-0.68364 -0.0397,-0.83719 0.31931,-1.30838 0.22392,-0.2936 0.74355,-0.74968 1.15465,-1.01347 0.68766,-0.44127 0.81611,-0.47198 1.60605,-0.3843 0.77819,0.0864 0.91494,0.15881 1.46047,0.77352 0.33102,0.37301 0.68084,0.67763 0.77736,0.67694 0.23554,-0.002 0.88263,0.86126 1.7869,2.38302 0.41043,0.69063 0.86324,1.3186 1.00634,1.39548 0.14297,0.0769 0.53495,0.54438 0.87084,1.03903 0.33587,0.4946 0.67966,0.89924 0.76404,0.89924 0.0843,0 0.67434,-0.26509 1.31103,-0.58919 1.54748,-0.78758 2.18542,-0.98453 4.72169,-1.45769 1.18467,-0.22102 2.27245,-0.50457 2.4173,-0.63027 0.39879,-0.34606 0.36581,-0.78719 -0.32904,-4.39509 -0.0876,-0.45515 -0.26132,-1.19883 -0.386,-1.65252 -0.35146,-1.27984 -0.17407,-2.17049 0.58789,-2.94949 0.88524,-0.90513 1.55344,-1.17515 2.65984,-1.07481 0.49603,0.0452 1.00917,0.17269 1.14041,0.28367 0.13123,0.11109 0.7889,0.43908 1.4615,0.72889 l 1.2229,0.52703 0.24011,0.97769 c 0.19559,0.79634 0.211,1.18267 0.0831,2.08265 -0.13143,0.92565 -0.11364,1.27971 0.10991,2.18188 0.41816,1.68726 0.69279,2.46737 0.94159,2.67384 0.12634,0.10483 0.71508,0.27061 1.30839,0.36842 3.91009,0.64457 5.88372,1.14332 7.18897,1.81673 0.62433,0.32212 1.46071,0.59493 2.24864,0.73347 1.97707,0.34762 2.47496,0.67111 3.2982,2.14289 0.38189,0.68281 0.97538,1.52921 1.31882,1.88094 0.74984,0.76787 0.99666,1.35838 0.86419,2.06744 -0.20236,1.08334 -0.62707,1.15565 -2.12981,0.36261 -0.86562,-0.45678 -1.23906,-0.55903 -2.38091,-0.65183 -0.93264,-0.0759 -1.55613,-0.21406 -2.00272,-0.44401 -0.71766,-0.36943 -0.73636,-0.37052 -4.69334,-0.26788 -2.02592,0.0526 -3.09101,0.0156 -3.91231,-0.13965 -1.45297,-0.27274 -2.62381,-0.26879 -3.54985,0.0117 -0.40624,0.12321 -0.93505,0.22479 -1.17507,0.22569 -0.55321,0.002 -4.70218,0.93179 -7.15134,1.60247 -1.81145,0.49612 -4.27226,1.58778 -5.87964,2.60846 -0.37239,0.2365 -0.95132,0.50241 -1.28647,0.59083 -1.13586,0.29983 -4.36026,2.72548 -5.31042,3.99493 -1.60735,2.1474 -3.14373,4.95789 -3.87039,7.0799 -0.47839,1.39711 -0.57763,1.90764 -0.63663,3.27386 -0.0816,1.88741 0.0499,2.66995 0.87579,5.22192 0.57491,1.77597 1.86949,4.24027 2.74323,5.22164 0.36042,0.40473 4.78472,2.66926 6.80775,3.48438 2.44559,0.98538 6.44442,2.13154 8.80271,2.52305 2.17873,0.36181 5.22397,0.60403 9.63326,0.76646 3.65106,0.13456 8.29586,-0.20927 14.73413,-1.09071 1.44317,-0.19758 2.65609,-0.32705 2.69534,-0.28786 0.30387,0.30385 -1.67712,2.83473 -2.35103,3.00363 -0.61921,0.1551 -2.13064,1.09688 -2.89305,1.80251 -0.75395,0.69778 -2.14986,1.75547 -2.67326,2.02551 -0.18756,0.0968 -0.68009,0.47716 -1.09466,0.8453 -0.41451,0.36816 -1.02289,0.80673 -1.3519,0.9746 -0.52695,0.26885 -0.59814,0.36849 -0.59814,0.83728 0,0.32609 0.23423,0.98698 0.60478,1.70687 0.48331,0.93871 0.63761,1.44289 0.76804,2.50908 0.17446,1.42573 0.1062,2.41198 -0.20346,2.93737 -0.30878,0.52416 -3.6983,2.99207 -4.10938,2.99207 -0.41443,0 -0.7,-0.36884 -1.04699,-1.35246 -0.13026,-0.36875 -0.36152,-0.80773 -0.51417,-0.9756 -0.18834,-0.20702 -0.31083,-0.65807 -0.38073,-1.40121 -0.12576,-1.33844 -0.44079,-2.45792 -0.92905,-3.30262 -0.55883,-0.96677 -0.72586,-1.00696 -2.42424,-0.58365 -0.80879,0.20163 -2.11378,0.41268 -2.90001,0.46904 -2.1446,0.15373 -2.0924,0.0962 -3.28053,3.6103 -0.96954,2.86739 -1.33175,4.33896 -1.46305,5.94372 -0.12536,1.53349 -0.3555,2.14425 -1.0946,2.90715 -0.63652,0.65695 -2.46281,1.83777 -3.07588,1.9888 -0.37882,0.0933 -0.43614,0.0457 -0.7045,-0.58009 z m 11.49836,-35.95297 c -0.76167,-2.14063 -1.29682,-3.97545 -1.42201,-4.87547 -0.25817,-1.85624 -0.20278,-6.86316 0.0861,-7.78172 0.41267,-1.31192 0.71105,-1.80083 1.36771,-2.24052 l 0.63263,-0.4236 1.25095,0.18091 c 1.49952,0.2168 1.97642,0.1193 2.58824,-0.52983 1.12251,-1.19077 1.28447,-1.24788 3.84877,-1.35739 1.28278,-0.0548 3.75431,-0.16683 5.49228,-0.24874 3.97987,-0.18775 12.86938,0.0685 13.8031,0.39791 0.33272,0.11735 0.87239,0.21344 1.19925,0.21344 0.41958,0 0.88958,0.17309 1.59869,0.58852 0.55238,0.32369 1.30908,0.63329 1.68151,0.68812 1.09795,0.16154 1.16879,0.20838 1.41751,0.93835 0.37881,1.11168 0.31124,2.6651 -0.15901,3.65346 -0.51074,1.07368 -0.49932,2.15808 0.0397,3.81506 0.50451,1.54997 0.57483,3.21783 0.15509,3.68172 -0.15216,0.1684 -0.54062,0.35058 -0.86321,0.40501 -0.32259,0.054 -0.84131,0.2726 -1.15277,0.48469 -1.40652,0.95778 -2.7137,1.06916 -4.00372,0.34113 -0.7427,-0.41916 -0.97002,-0.46321 -3.1953,-0.61989 -2.65755,-0.18698 -10.52812,-0.0939 -12.85361,0.15216 -0.78622,0.0833 -2.27589,0.22548 -3.31039,0.31618 -2.41458,0.21165 -3.1641,0.42922 -5.22793,1.51688 -1.25615,0.66202 -1.84828,0.89162 -2.29944,0.89162 -0.35009,0 -0.63605,-0.0798 -0.67461,-0.18815 z m -11.49836,35.95297 c -0.16057,-0.37492 -0.40843,-1.04228 -0.55048,-1.48307 -0.14199,-0.4407 -0.36671,-1.07019 -0.49926,-1.39869 -0.14179,-0.35138 -0.23765,-1.01072 -0.23274,-1.6019 0.008,-0.91763 0.052,-1.05393 0.50789,-1.57366 0.65374,-0.74456 0.81865,-1.16625 1.42998,-3.65591 0.88803,-3.61664 0.85596,-3.99491 -0.36608,-4.31664 -0.72647,-0.19128 -3.03057,-0.99126 -5.94372,-2.06375 -0.99314,-0.36561 -3.23813,-1.38627 -4.98887,-2.26815 -1.75074,-0.88185 -3.34577,-1.60336 -3.54451,-1.60336 -0.19875,0 -0.56483,0.15235 -0.81355,0.3386 -0.96467,0.72222 -3.9344,4.06319 -4.76333,5.35878 -0.7161,1.11918 -1.08594,1.52191 -2.10662,2.29384 -1.34369,1.01622 -1.88553,1.28903 -2.26832,1.14213 -0.36324,-0.13945 -0.84923,-1.0151 -0.85158,-1.5344 -0.001,-0.24828 -0.17054,-0.81364 -0.37676,-1.25636 -0.26384,-0.56675 -0.37472,-1.06341 -0.37472,-1.67859 0,-0.77516 0.0589,-0.9435 0.51759,-1.49317 0.28464,-0.34079 0.56061,-0.7365 0.61313,-0.87947 0.0526,-0.14297 0.78453,-0.86908 1.62666,-1.6136 0.84213,-0.7445 1.78258,-1.62479 2.08989,-1.95616 1.09916,-1.18522 2.67644,-3.29591 2.67644,-3.58157 0,-0.15998 -0.30551,-0.75042 -0.67892,-1.31207 -0.89118,-1.34055 -1.3416,-2.38526 -1.90495,-4.4184 -0.58179,-2.09969 -0.61804,-2.1658 -1.25406,-2.2851 -0.81929,-0.15373 -1.2517,0.0348 -2.24032,0.97899 -0.53933,0.51499 -1.38148,1.10871 -2.03932,1.43801 -0.61627,0.30851 -1.37671,0.72263 -1.68983,0.92028 -0.31317,0.19774 -0.69862,0.3594 -0.85669,0.3594 -0.32787,0 -0.77066,-0.84364 -1.05826,-2.01649 -0.0995,-0.40564 -0.27891,-0.92703 -0.39866,-1.15872 -0.11975,-0.23164 -0.21776,-0.58557 -0.21776,-0.78649 0,-0.5595 0.41301,-1.42286 0.72849,-1.523 0.15509,-0.0493 0.41015,-0.37581 0.56648,-0.72571 0.28464,-0.63687 1.19319,-1.61216 1.50307,-1.61349 0.0906,-4.5e-4 0.28158,-0.12967 0.42417,-0.28739 0.14493,-0.15999 0.53721,-0.31862 0.88855,-0.35919 1.06891,-0.12321 3.68368,-1.19726 3.94523,-1.62048 0.0561,-0.0909 0.29421,-1.49731 0.52881,-3.1252 0.23458,-1.62789 0.53118,-3.29837 0.65914,-3.71218 0.44448,-1.43755 0.37007,-1.54622 -2.04362,-2.98612 -0.90624,-0.54063 -1.63192,-1.08278 -1.74315,-1.30238 -1.3629,-2.69038 -1.50096,-3.54288 -0.88688,-5.47662 0.38778,-1.22105 0.90415,-1.95864 1.79402,-2.56252 0.48373,-0.32836 0.73762,-0.38736 1.66453,-0.38736 1.03167,0 1.1188,0.0266 1.53568,0.47209 1.08283,1.15668 3.74389,3.30181 4.04269,3.25888 0.18639,-0.0266 0.59077,-0.45494 1.0188,-1.07886 1.11137,-1.6197 2.13803,-2.7184 3.55372,-3.80299 1.61385,-1.23642 1.83323,-1.47853 1.83323,-2.02324 0,-0.23773 -0.24457,-1.12743 -0.54344,-1.97711 -0.34255,-0.97395 -0.58378,-1.98971 -0.65257,-2.74865 -0.0686,-0.75592 -0.26084,-1.56767 -0.51676,-2.18187 -0.2242,-0.53789 -0.44708,-1.32661 -0.49543,-1.75258 -0.0774,-0.68364 -0.0397,-0.83719 0.31931,-1.30838 0.22392,-0.2936 0.74355,-0.74968 1.15465,-1.01347 0.68766,-0.44127 0.81611,-0.47198 1.60605,-0.3843 0.77819,0.0864 0.91494,0.15881 1.46047,0.77352 0.33102,0.37301 0.68084,0.67763 0.77736,0.67694 0.23554,-0.002 0.88263,0.86126 1.7869,2.38302 0.41043,0.69063 0.86324,1.3186 1.00634,1.39548 0.14297,0.0769 0.53495,0.54438 0.87084,1.03903 0.33587,0.4946 0.67966,0.89924 0.76404,0.89924 0.0843,0 0.67434,-0.26509 1.31103,-0.58919 1.54748,-0.78758 2.18542,-0.98453 4.72169,-1.45769 1.18467,-0.22102 2.27245,-0.50457 2.4173,-0.63027 0.39879,-0.34606 0.36581,-0.78719 -0.32904,-4.39509 -0.0876,-0.45515 -0.26132,-1.19883 -0.386,-1.65252 -0.35146,-1.27984 -0.17407,-2.17049 0.58789,-2.94949 0.88524,-0.90513 1.55344,-1.17515 2.65984,-1.07481 0.49603,0.0452 1.00917,0.17269 1.14041,0.28367 0.13123,0.11109 0.7889,0.43908 1.4615,0.72889 l 1.2229,0.52703 0.24011,0.97769 c 0.19559,0.79634 0.211,1.18267 0.0831,2.08265 -0.13143,0.92565 -0.11364,1.27971 0.10991,2.18188 0.41816,1.68726 0.69279,2.46737 0.94159,2.67384 0.12634,0.10483 0.71508,0.27061 1.30839,0.36842 3.91009,0.64457 5.88372,1.14332 7.18897,1.81673 0.62433,0.32212 1.46071,0.59493 2.24864,0.73347 1.97707,0.34762 2.47496,0.67111 3.2982,2.14289 0.38189,0.68281 0.97538,1.52921 1.31882,1.88094 0.74984,0.76787 0.99666,1.35838 0.86419,2.06744 -0.20236,1.08334 -0.62707,1.15565 -2.12981,0.36261 -0.86562,-0.45678 -1.23906,-0.55903 -2.38091,-0.65183 -0.93264,-0.0759 -1.55613,-0.21406 -2.00272,-0.44401 -0.71766,-0.36943 -0.73636,-0.37052 -4.69334,-0.26788 -2.02592,0.0526 -3.09101,0.0156 -3.91231,-0.13965 -1.45297,-0.27274 -2.62381,-0.26879 -3.54985,0.0117 -0.40624,0.12321 -0.93505,0.22479 -1.17507,0.22569 -0.55321,0.002 -4.70218,0.93179 -7.15134,1.60247 -1.81145,0.49612 -4.27226,1.58778 -5.87964,2.60846 -0.37239,0.2365 -0.95132,0.50241 -1.28647,0.59083 -1.13586,0.29983 -4.36026,2.72548 -5.31042,3.99493 -1.60735,2.1474 -3.14373,4.95789 -3.87039,7.0799 -0.47839,1.39711 -0.57763,1.90764 -0.63663,3.27386 -0.0816,1.88741 0.0499,2.66995 0.87579,5.22192 0.57491,1.77597 1.86949,4.24027 2.74323,5.22164 0.36042,0.40473 4.78472,2.66926 6.80775,3.48438 2.44559,0.98538 6.44442,2.13154 8.80271,2.52305 2.17873,0.36181 5.22397,0.60403 9.63326,0.76646 3.65106,0.13456 8.29586,-0.20927 14.73413,-1.09071 1.44317,-0.19758 2.65609,-0.32705 2.69534,-0.28786 0.30387,0.30385 -1.67712,2.83473 -2.35103,3.00363 -0.61921,0.1551 -2.13064,1.09688 -2.89305,1.80251 -0.75395,0.69778 -2.14986,1.75547 -2.67326,2.02551 -0.18756,0.0968 -0.68009,0.47716 -1.09466,0.8453 -0.41451,0.36816 -1.02289,0.80673 -1.3519,0.9746 -0.52695,0.26885 -0.59814,0.36849 -0.59814,0.83728 0,0.32609 0.23423,0.98698 0.60478,1.70687 0.48331,0.93871 0.63761,1.44289 0.76804,2.50908 0.17446,1.42573 0.1062,2.41198 -0.20346,2.93737 -0.30878,0.52416 -3.6983,2.99207 -4.10938,2.99207 -0.41443,0 -0.7,-0.36884 -1.04699,-1.35246 -0.13026,-0.36875 -0.36152,-0.80773 -0.51417,-0.9756 -0.18834,-0.20702 -0.31083,-0.65807 -0.38073,-1.40121 -0.12576,-1.33844 -0.44079,-2.45792 -0.92905,-3.30262 -0.55883,-0.96677 -0.72586,-1.00696 -2.42424,-0.58365 -0.80879,0.20163 -2.11378,0.41268 -2.90001,0.46904 -2.1446,0.15373 -2.0924,0.0962 -3.28053,3.6103 -0.96954,2.86739 -1.33175,4.33896 -1.46305,5.94372 -0.12536,1.53349 -0.3555,2.14425 -1.0946,2.90715 -0.63652,0.65695 -2.46281,1.83777 -3.07588,1.9888 -0.37882,0.0933 -0.43614,0.0457 -0.7045,-0.58009 z m 11.49836,-35.95297 c -0.76167,-2.14063 -1.29682,-3.97545 -1.42201,-4.87547 -0.25817,-1.85624 -0.20278,-6.86316 0.0861,-7.78172 0.41267,-1.31192 0.71105,-1.80083 1.36771,-2.24052 l 0.63263,-0.4236 1.25095,0.18091 c 1.49952,0.2168 1.97642,0.1193 2.58824,-0.52983 1.12251,-1.19077 1.28447,-1.24788 3.84877,-1.35739 1.28278,-0.0548 3.75431,-0.16683 5.49228,-0.24874 3.97987,-0.18775 12.86938,0.0685 13.8031,0.39791 0.33272,0.11735 0.87239,0.21344 1.19925,0.21344 0.41958,0 0.88958,0.17309 1.59869,0.58852 0.55238,0.32369 1.30908,0.63329 1.68151,0.68812 1.09795,0.16154 1.16879,0.20838 1.41751,0.93835 0.37881,1.11168 0.31124,2.6651 -0.15901,3.65346 -0.51074,1.07368 -0.49932,2.15808 0.0397,3.81506 0.50451,1.54997 0.57483,3.21783 0.15509,3.68172 -0.15216,0.1684 -0.54062,0.35058 -0.86321,0.40501 -0.32259,0.054 -0.84131,0.2726 -1.15277,0.48469 -1.40652,0.95778 -2.7137,1.06916 -4.00372,0.34113 -0.7427,-0.41916 -0.97002,-0.46321 -3.1953,-0.61989 -2.65755,-0.18698 -10.52812,-0.0939 -12.85361,0.15216 -0.78622,0.0833 -2.27589,0.22548 -3.31039,0.31618 -2.41458,0.21165 -3.1641,0.42922 -5.22793,1.51688 -1.25615,0.66202 -1.84828,0.89162 -2.29944,0.89162 -0.35009,0 -0.63605,-0.0798 -0.67461,-0.18815 z m -11.62617,36.03844 c -0.16702,-0.39312 -0.42238,-1.08717 -0.5675,-1.54235 -0.14512,-0.45515 -0.36939,-1.08965 -0.4983,-1.40992 -0.13123,-0.32628 -0.23438,-1.02767 -0.23438,-1.59507 0,-0.94613 0.0356,-1.05466 0.54399,-1.6483 0.6707,-0.78358 1.26051,-2.55567 1.9204,-5.77002 0.33251,-1.6196 0.33683,-1.61506 -2.44855,-2.56373 -4.48093,-1.52615 -6.02763,-2.15674 -9.24421,-3.76885 -1.75792,-0.88106 -3.3609,-1.60191 -3.56221,-1.60191 -0.40405,0 -1.0762,0.50967 -1.88532,1.4295 -0.29114,0.33108 -0.92703,0.97433 -1.41301,1.42952 -0.48598,0.45514 -1.06034,1.1323 -1.27636,1.50472 -1.10892,1.91174 -1.74923,2.66428 -3.15757,3.71108 -1.34376,0.99877 -1.7036,1.16987 -2.19899,1.04554 -0.44406,-0.11148 -0.99019,-1.0488 -0.99247,-1.70353 -0.001,-0.23088 -0.17016,-0.78201 -0.37622,-1.22472 -0.54863,-1.17856 -0.52641,-2.39606 0.0561,-3.06454 0.23683,-0.27185 0.54096,-0.70987 0.67583,-0.97338 0.13495,-0.26351 1.00906,-1.15101 1.9425,-1.97224 0.93347,-0.82118 1.89895,-1.73104 2.14553,-2.02187 1.13769,-1.34192 2.32922,-2.97009 2.32922,-3.18278 0,-0.12889 -0.30939,-0.71275 -0.68754,-1.29733 -0.88485,-1.36783 -1.25589,-2.23615 -1.86459,-4.36359 -0.27235,-0.95174 -0.59871,-1.84894 -0.72527,-1.99377 -0.28033,-0.3207 -1.09614,-0.34511 -1.65805,-0.0499 -0.22352,0.11755 -0.71106,0.52964 -1.08348,0.91597 -0.40002,0.41486 -1.16584,0.94972 -1.87107,1.30673 -0.6567,0.33245 -1.45095,0.76665 -1.76507,0.96496 -1.03298,0.6521 -1.38197,0.43667 -1.85363,-1.14421 -0.13593,-0.45513 -0.37814,-1.16746 -0.53859,-1.58288 -0.16038,-0.41533 -0.29155,-0.88711 -0.29155,-1.04827 0,-0.54138 0.47628,-1.55349 0.76686,-1.62948 0.15686,-0.0411 0.41192,-0.37068 0.56731,-0.73341 0.28566,-0.66648 1.21952,-1.62677 1.58195,-1.62677 0.10835,0 0.31383,-0.12889 0.45657,-0.28663 0.14492,-0.15998 0.53727,-0.31864 0.88853,-0.3592 1.39802,-0.16116 3.81753,-1.26928 3.93178,-1.80065 0.0397,-0.18561 0.24403,-1.56175 0.45365,-3.0583 0.20963,-1.49652 0.48201,-3.05393 0.60554,-3.46089 0.12341,-0.40693 0.22521,-0.88882 0.22603,-1.07083 0.002,-0.35145 -0.64001,-0.92112 -1.57437,-1.3975 -1.26833,-0.64665 -2.33574,-1.44737 -2.50998,-1.88295 -0.0994,-0.24833 -0.40561,-0.93922 -0.68062,-1.53538 -0.62112,-1.34664 -0.65122,-2.25972 -0.1285,-3.91152 0.41274,-1.30477 0.74489,-1.79664 1.71926,-2.54622 0.6147,-0.47294 0.7397,-0.50863 1.77923,-0.50863 h 1.11808 l 1.45596,1.3179 c 1.99908,1.80953 2.79905,2.44393 3.08174,2.44393 0.13241,0 0.53879,-0.45704 0.9032,-1.0157 0.91239,-1.39854 2.28089,-2.84308 3.83517,-4.04827 0.72048,-0.55867 1.35974,-1.08674 1.42056,-1.17348 0.21966,-0.31336 0.10444,-0.9558 -0.48674,-2.71574 -0.40659,-1.21028 -0.60356,-2.06239 -0.60704,-2.62623 -0.004,-0.56873 -0.14962,-1.19414 -0.45877,-1.9632 -0.24949,-0.62071 -0.49344,-1.48311 -0.54227,-1.91644 -0.11089,-0.98418 0.20825,-1.50731 1.43497,-2.35222 0.79936,-0.55054 0.89066,-0.57728 1.68773,-0.49398 1.12877,0.11793 1.28551,0.19284 1.65459,0.79001 0.17406,0.2815 0.37608,0.5117 0.44925,0.5117 0.33956,0 1.24856,1.03491 1.82308,2.07565 0.34859,0.63151 0.97663,1.53907 1.39563,2.01675 0.41897,0.47773 0.93775,1.08457 1.1528,1.34863 l 0.39107,0.48017 0.99748,-0.54828 c 1.31733,-0.72409 2.29899,-1.03254 4.89012,-1.53653 1.18545,-0.23061 2.25193,-0.51573 2.36995,-0.63378 0.24354,-0.24354 0.26049,-0.83093 0.0553,-1.92352 -0.0776,-0.41375 -0.21299,-1.21183 -0.30053,-1.77343 -0.0876,-0.56163 -0.25701,-1.29801 -0.37647,-1.6365 -0.1195,-0.33855 -0.21716,-1.14723 -0.21716,-1.79722 v -1.18176 l 0.69289,-0.6426 c 1.10483,-1.02467 1.59836,-1.22277 2.7518,-1.10458 0.53966,0.0554 1.07643,0.18189 1.1928,0.28128 0.11637,0.0994 0.76257,0.42101 1.43601,0.71468 1.62622,0.70913 1.67525,0.8122 1.67818,3.52883 0.002,1.74499 0.0622,2.31715 0.35099,3.33301 0.42383,1.4906 0.69246,1.80824 1.63732,1.93605 0.39488,0.0534 1.90289,0.33245 3.35122,0.62005 2.11602,0.42024 2.91404,0.65271 4.06277,1.18403 0.82216,0.38024 1.78113,0.70497 2.25711,0.76427 0.45514,0.0567 1.24124,0.26665 1.74679,0.46644 0.87702,0.34666 0.94608,0.41287 1.50474,1.44317 0.32204,0.59384 0.91415,1.44534 1.31577,1.89212 0.40158,0.44681 0.83034,1.05183 0.95265,1.3446 0.39674,0.9496 -0.0438,2.13885 -0.79243,2.13885 -0.18795,0 -0.80392,-0.24381 -1.36856,-0.54172 -0.8656,-0.4568 -1.23906,-0.55903 -2.38088,-0.65185 -0.96118,-0.0782 -1.55084,-0.21207 -2.0314,-0.46122 -0.46781,-0.24265 -0.90972,-0.34592 -1.4295,-0.33458 -4.13704,0.0913 -6.85188,0.0575 -7.3732,-0.0929 -0.72517,-0.2086 -2.4711,-0.22912 -2.9819,-0.0342 -0.20252,0.0769 -0.901,0.21352 -1.55217,0.30325 -2.57624,0.35537 -7.93378,1.71153 -9.51213,2.40793 -0.55062,0.24293 -1.57671,0.75983 -2.28018,1.14861 -2.13063,1.17749 -2.31155,1.26677 -2.56654,1.26677 -0.54083,0 -3.62828,2.25737 -4.67687,3.41952 -1.45363,1.61107 -3.51426,5.21593 -4.29207,7.50849 -0.49658,1.46384 -0.56163,1.83506 -0.616,3.51746 -0.0589,1.80587 -0.0383,1.95598 0.48524,3.76183 0.64131,2.20899 1.22613,3.51244 2.36296,5.26658 l 0.82891,1.27903 3.22149,1.60504 c 3.478,1.73286 4.11577,1.98805 7.66046,3.06526 3.0675,0.93217 6.96077,1.55625 10.60838,1.70047 7.3882,0.2921 10.75347,0.10913 18.87671,-1.02639 1.34806,-0.18834 2.22759,-0.25038 2.31478,-0.16331 0.0872,0.0872 -0.16077,0.58754 -0.65293,1.31685 -0.81653,1.21027 -1.42354,1.83845 -1.78556,1.84792 -0.36939,0.01 -2.48209,1.37536 -3.25899,2.10662 -0.41636,0.39196 -1.34845,1.10211 -2.07114,1.57808 -0.72273,0.47593 -1.39907,0.9868 -1.503,1.13517 -0.10405,0.14845 -0.52613,0.46738 -0.93832,0.70892 -1.01246,0.59335 -1.04751,0.98655 -0.22793,2.55706 0.51663,0.99001 0.63959,1.4036 0.77327,2.60081 0.22971,2.058 0.11324,2.59829 -0.74378,3.44494 -0.38709,0.38257 -1.30447,1.11868 -2.03852,1.63593 -1.62608,1.14581 -2.0563,1.21114 -2.47758,0.37622 -0.15666,-0.31037 -0.33696,-0.73356 -0.40084,-0.94047 -0.0643,-0.20688 -0.26714,-0.57927 -0.45171,-0.8276 -0.2471,-0.33251 -0.36186,-0.75686 -0.43546,-1.61037 -0.14649,-1.70128 -0.9294,-3.71044 -1.53654,-3.94342 -0.12674,-0.0493 -0.88533,0.0735 -1.68589,0.27165 -0.80059,0.19807 -2.09242,0.40419 -2.87075,0.45828 -0.77833,0.054 -1.53939,0.16488 -1.69126,0.24608 -0.38915,0.20826 -0.59404,0.66183 -1.45594,3.22356 -0.99897,2.96907 -1.37388,4.49034 -1.47619,5.98978 -0.14786,2.1673 -1.03074,3.3506 -3.44908,4.62272 -1.16261,0.61154 -1.32586,0.5857 -1.68825,-0.26742 z m 11.59957,-35.88796 c -0.30106,-0.40501 -1.41847,-4.09041 -1.55209,-5.11907 -0.23334,-1.79599 -0.18072,-7.0356 0.0751,-7.48309 0.11832,-0.20688 0.2174,-0.5262 0.22036,-0.70964 0.01,-0.64986 0.5086,-1.39889 1.24452,-1.87114 0.70856,-0.45466 0.75279,-0.46307 1.57569,-0.29769 0.46568,0.0935 1.15056,0.16996 1.52199,0.16996 0.58351,0 0.74921,-0.0769 1.21864,-0.56431 0.29879,-0.31035 0.81311,-0.74264 1.14286,-0.96065 0.59466,-0.39312 0.63514,-0.39784 4.96329,-0.57018 6.79954,-0.27076 7.39295,-0.27759 12.11313,-0.13965 3.25092,0.0951 4.61732,0.19011 5.1053,0.35469 0.36644,0.12361 0.9198,0.2248 1.2296,0.2248 0.37553,0 0.99484,0.22568 1.85782,0.67714 0.71197,0.37239 1.50044,0.67714 1.75213,0.67714 0.72441,0 1.01215,0.24723 1.2604,1.0832 0.37553,1.26469 0.30331,2.53821 -0.2105,3.70878 -0.40638,0.92588 -0.43122,1.08248 -0.3142,1.98137 0.0698,0.5368 0.26379,1.41617 0.4308,1.95412 0.42996,1.38424 0.52728,2.25657 0.33251,2.97998 -0.18326,0.68023 -0.39338,0.84986 -1.25285,1.0111 -0.3092,0.0581 -0.81583,0.28873 -1.12578,0.51285 -1.27376,0.92071 -2.76268,1.03317 -4.03576,0.30483 -0.74402,-0.42574 -0.96214,-0.46924 -3.103,-0.61943 -4.96845,-0.34838 -16.51859,0.1815 -18.92016,0.86803 -0.73775,0.21083 -2.20599,0.90667 -3.61891,1.71497 -0.58735,0.33601 -1.69615,0.40084 -1.911,0.11187 z m -11.28747,36.63291 c -0.17875,-0.11266 -0.74576,-1.54556 -1.41091,-3.56634 -0.21264,-0.6458 -0.34135,-1.38621 -0.33286,-1.91385 0.0117,-0.76658 0.0747,-0.93084 0.57105,-1.50472 0.65813,-0.76082 0.81513,-1.17211 1.5068,-3.94672 0.51422,-2.06284 0.62783,-2.9961 0.40706,-3.34323 -0.0616,-0.0964 -0.88982,-0.42613 -1.841,-0.73265 -3.6599,-1.17937 -6.66834,-2.39732 -9.87686,-3.99858 -3.33017,-1.66201 -3.33255,-1.66288 -3.79522,-1.42363 -0.68557,0.35447 -3.78167,3.58896 -4.34528,4.53942 -0.95546,1.61129 -1.70618,2.46784 -3.01317,3.43794 -1.46836,1.08989 -2.17,1.26591 -2.71485,0.68111 -0.29013,-0.31139 -0.63035,-1.24483 -0.63035,-1.72925 0,-0.14786 -0.1774,-0.64416 -0.39449,-1.10274 -0.33327,-0.70456 -0.38197,-0.9718 -0.31371,-1.72469 0.0649,-0.71927 0.16702,-0.98183 0.52826,-1.36263 0.24614,-0.25942 0.49357,-0.62468 0.54991,-0.81172 0.0561,-0.18697 0.96101,-1.09589 2.01038,-2.01974 1.04936,-0.92384 2.3142,-2.20141 2.81078,-2.83902 0.4965,-0.63762 1.09821,-1.40611 1.33703,-1.70777 l 0.43413,-0.54843 -0.55478,-0.86193 c -0.91542,-1.42212 -1.55804,-2.86875 -2.11077,-4.75178 -0.28791,-0.98076 -0.60211,-1.87797 -0.69816,-1.99377 -0.10151,-0.12224 -0.45344,-0.21058 -0.83942,-0.21058 -0.61126,0 -0.74873,0.079 -1.71152,0.98322 -0.57579,0.5407 -1.35555,1.11551 -1.73278,1.27724 -0.37726,0.16174 -1.15107,0.56571 -1.71959,0.89769 -0.56853,0.33204 -1.14133,0.60368 -1.27293,0.60368 -0.29441,0 -0.78598,-0.77328 -1.00429,-1.57996 -0.0896,-0.33108 -0.32951,-1.08488 -0.53311,-1.67518 -0.36001,-1.04366 -0.36343,-1.094 -0.12468,-1.82419 0.16298,-0.49829 0.36486,-0.80526 0.60007,-0.91244 0.19499,-0.0888 0.48365,-0.45343 0.64143,-0.81017 0.42089,-0.95134 1.96161,-2.07382 3.01055,-2.1932 0.35359,-0.0397 0.67925,-0.13201 0.72363,-0.20374 0.0444,-0.0718 0.22896,-0.13495 0.41035,-0.14003 0.1813,-0.006 0.83751,-0.2592 1.45821,-0.56429 l 1.12856,-0.5547 0.40864,-2.83559 c 0.22472,-1.55956 0.54221,-3.3201 0.70538,-3.91232 0.35496,-1.28799 0.26578,-1.51334 -0.84956,-2.14579 -2.08156,-1.18033 -3.0482,-1.88945 -3.0482,-2.23613 0,-0.0902 -0.24313,-0.6701 -0.54021,-1.28851 -0.73165,-1.52259 -0.78796,-2.28626 -0.29287,-3.97007 0.67646,-2.30018 1.87327,-3.35671 3.83663,-3.38685 l 0.97225,-0.0156 0.83343,0.80845 c 1.45567,1.412 3.34311,2.95632 3.61317,2.95632 0.15451,0 0.53873,-0.41437 0.94196,-1.01569 0.96935,-1.44547 2.17974,-2.72223 3.69365,-3.89614 0.72168,-0.55963 1.36189,-1.0884 1.42267,-1.17513 0.23091,-0.3293 0.0968,-1.1653 -0.42736,-2.66672 -0.37506,-1.0743 -0.55683,-1.87878 -0.58885,-2.60709 -0.0334,-0.7584 -0.1725,-1.34819 -0.49693,-2.10661 -0.99944,-2.336 -0.75756,-3.18693 1.28219,-4.51029 0.62077,-0.40274 0.65052,-0.40679 1.70032,-0.22965 0.99775,0.1684 1.09253,0.21823 1.43154,0.75533 0.19964,0.31638 0.48915,0.6151 0.64315,0.66402 0.44552,0.14141 1.01364,0.82535 1.69578,2.04158 0.34812,0.62072 0.94572,1.47241 1.32798,1.89266 0.38222,0.42027 0.87057,0.99453 1.08516,1.27616 l 0.39018,0.51205 1.41552,-0.70399 c 1.07446,-0.5344 1.86873,-0.79873 3.29645,-1.09725 1.0345,-0.21625 2.25332,-0.47381 2.70851,-0.57215 l 0.8276,-0.17895 0.0493,-0.67714 c 0.052,-0.71884 -0.25551,-2.59904 -0.75271,-4.59738 -0.20169,-0.81058 -0.28033,-1.52263 -0.23752,-2.15099 0.0595,-0.87122 0.11188,-0.98813 0.72514,-1.613 0.99038,-1.00913 1.67763,-1.29124 2.85999,-1.17405 0.53194,0.052 1.06875,0.18209 1.19289,0.28745 0.12419,0.10542 0.81389,0.46239 1.53275,0.79329 1.22478,0.56382 1.31698,0.63863 1.46499,1.18833 0.31993,1.18827 0.34455,1.55979 0.16605,2.50574 -0.16801,0.89028 -0.15158,1.08622 0.20949,2.48397 0.21549,0.8346 0.46628,1.68082 0.55724,1.88045 0.18072,0.39701 0.71074,0.69711 1.23069,0.69711 0.37677,0 5.20914,0.9683 5.89851,1.18195 0.24825,0.0769 0.95926,0.38183 1.57998,0.67741 0.63145,0.30073 1.57902,0.60787 2.15119,0.69733 1.13833,0.17797 2.1438,0.5264 2.5675,0.88995 0.15373,0.13201 0.55766,0.74784 0.89739,1.36853 0.3397,0.62072 0.89843,1.43328 1.2416,1.80568 0.81541,0.88491 0.96693,1.19852 0.96693,2.00122 0,0.76363 -0.44248,1.45968 -0.9278,1.45968 -0.16722,0 -0.82251,-0.26132 -1.45619,-0.58064 -0.96459,-0.48612 -1.3481,-0.5933 -2.35593,-0.65833 -0.88214,-0.0567 -1.44059,-0.18873 -2.09007,-0.49337 -0.83585,-0.39202 -0.95572,-0.4087 -2.10664,-0.29218 -1.54302,0.15608 -5.70435,0.0923 -6.44765,-0.0986 -0.74647,-0.19186 -2.6431,-0.19421 -3.37017,-0.004 -0.31979,0.0835 -1.08924,0.22672 -1.70994,0.31821 -1.92561,0.28377 -7.20438,1.57186 -8.57699,2.09299 -0.45514,0.17289 -1.70787,0.79525 -2.78378,1.38318 -1.07588,0.58796 -2.26991,1.18876 -2.65338,1.33517 -0.91019,0.34751 -2.81082,1.66291 -3.9862,2.75882 -1.19448,1.11368 -2.46925,2.97942 -3.72382,5.45003 -1.40929,2.77529 -1.81014,4.1996 -1.79954,6.39455 0.008,1.53319 0.071,1.94485 0.55766,3.61137 0.60225,2.06209 1.20231,3.38122 2.33862,5.14109 l 0.74479,1.15352 2.9819,1.49634 c 3.41515,1.71378 4.55919,2.17879 7.49611,3.04698 1.15866,0.3425 2.26451,0.68593 2.45743,0.76321 0.3442,0.13788 0.83906,0.22179 3.86246,0.65553 0.82762,0.11871 3.40477,0.32212 5.72699,0.45206 3.34976,0.18737 4.76458,0.20366 6.84656,0.0784 2.96247,-0.17817 7.18374,-0.61127 10.26805,-1.0535 2.27399,-0.32603 3.26556,-0.37363 3.26556,-0.15685 0,0.1903 -1.29431,2.08995 -1.77256,2.60155 -0.21083,0.22562 -0.94338,0.68759 -1.62782,1.02665 -0.71043,0.352 -1.68449,1.00667 -2.27004,1.52586 -0.5641,0.50021 -1.53349,1.25073 -2.15421,1.66789 -0.62071,0.41719 -1.40878,1.00176 -1.75128,1.29912 -0.34243,0.29738 -0.85035,0.67988 -1.12854,0.84996 -0.66229,0.40503 -0.63337,0.81936 0.16761,2.39924 0.518,1.02205 0.63167,1.41963 0.75228,2.6333 0.14923,1.5019 0.052,2.30875 -0.35529,2.92941 -0.25421,0.38797 -2.11103,1.85132 -3.32973,2.6242 -1.16032,0.73585 -1.35426,0.66722 -1.98108,-0.70085 -0.29387,-0.64136 -0.63002,-1.27524 -0.74697,-1.40857 -0.11696,-0.13339 -0.27904,-0.82652 -0.36009,-1.54047 -0.21973,-1.93345 -1.02979,-3.85988 -1.62314,-3.85988 -0.15353,0 -0.81471,0.14219 -1.46932,0.31577 -0.65465,0.17367 -1.9276,0.36397 -2.8288,0.42306 -1.51559,0.0992 -1.66398,0.13671 -1.9772,0.50096 -0.36814,0.42799 -2.03733,5.36819 -2.40284,7.11154 -0.12146,0.57935 -0.2225,1.39189 -0.22426,1.80568 -0.004,0.92594 -0.2311,1.77701 -0.63755,2.39226 -0.39216,0.59363 -1.60809,1.57707 -2.67465,2.16334 -0.99296,0.54582 -1.36971,0.66648 -1.60964,0.51547 z m 11.35747,-36.47066 c -0.42826,-0.33102 -1.57892,-4.06932 -1.76174,-5.72384 -0.25542,-2.312 -0.21112,-6.06511 0.0824,-6.96535 0.72987,-2.2393 0.83208,-2.39944 1.87458,-2.93715 0.44289,-0.2285 0.65374,-0.25181 1.1893,-0.13143 0.35801,0.0806 1.0271,0.15079 1.48685,0.15627 0.76153,0.01 0.87735,-0.0348 1.30157,-0.49501 0.25613,-0.27775 0.74213,-0.69508 1.08007,-0.92743 0.59554,-0.40946 0.70382,-0.4273 3.52805,-0.58228 5.26002,-0.28848 18.12408,-0.2159 18.64364,0.10522 0.0913,0.0567 0.64008,0.16233 1.21934,0.23494 0.59772,0.0751 1.22761,0.25482 1.45656,0.41574 0.75989,0.53413 1.45731,0.82702 2.3579,0.99013 1.17495,0.21277 1.33437,0.50781 1.40577,2.60114 0.0485,1.41663 0.0205,1.60413 -0.35482,2.39757 -0.47915,1.01287 -0.45048,1.69681 0.15901,3.7996 0.7354,2.5367 0.43865,3.77697 -0.97976,4.09471 -0.37076,0.0831 -0.90243,0.3252 -1.18148,0.53803 -1.17397,0.89542 -2.69626,1.02449 -3.93766,0.33381 -1.12182,-0.62414 -2.692,-0.77538 -8.12556,-0.78244 -4.20861,-0.006 -6.7074,0.1242 -11.21028,0.58209 -2.99694,0.30468 -3.63751,0.50444 -5.81379,1.81268 -0.96525,0.58023 -2.02131,0.791 -2.41998,0.48299 z" />
      <g
         id="g2632"
         style="font-variation-settings:normal;display:inline;opacity:1;vector-effect:none;fill:#b00031;fill-opacity:1;stroke-width:1.03858;stroke-linecap:butt;stroke-linejoin:miter;stroke-miterlimit:4;stroke-dasharray:none;stroke-dashoffset:0;stroke-opacity:1;-inkscape-stroke:none;stop-color:#000000;stop-opacity:1">
        <path
           style="font-variation-settings:normal;vector-effect:none;fill:#b00031;fill-opacity:1;fill-rule:evenodd;stroke:none;stroke-width:1.03858;stroke-linecap:butt;stroke-linejoin:miter;stroke-miterlimit:4;stroke-dasharray:none;stroke-dashoffset:0;stroke-opacity:1;-inkscape-stroke:none;marker-end:none;stop-color:#000000;stop-opacity:1"
           d="m 174.75585,201.60224 c -6.04576,2.46667 -10.16789,4.4194 -12.88454,6.35064 -2.71665,1.93124 -3.19257,4.60007 -3.24631,6.26587 -0.0269,0.8329 0.0809,1.77774 0.63189,2.44014 0.55103,0.6624 1.80769,1.87421 2.75794,2.38558 1.90049,1.02274 7.5417,2.42901 10.51899,3.07308 11.90917,2.57627 26.80568,1.68117 26.80568,1.68117 1.69307,1.2452 2.83283,2.82434 3.269,4.26902 4.5766,-1.88674 11.81084,-6.58439 13.15657,-8.57706 -5.45142,-4.19955 -10.79692,-6.33346 -16.51317,-8.30847 -1.59867,-0.71918 -2.87956,-1.22649 -0.71773,2.55635 0.98506,2.47275 0.85786,5.05143 0.57176,7.41825 0,0 -16.52749,0.40678 -28.23838,-2.1266 -2.92772,-0.63334 -5.46627,-0.95523 -7.21875,-1.89832 -0.87624,-0.47154 -1.48296,-0.8208 -1.91578,-1.3411 -0.43282,-0.5203 -0.2196,-1.29055 -0.20128,-1.85858 0.0366,-1.13607 0.25336,-1.67063 2.86177,-3.52492 2.60841,-1.85429 5.65407,-3.36195 11.65936,-5.81211 -0.0877,-1.29125 -0.29025,-2.5059 -1.29702,-2.99294 z"
           id="path2414"
           sodipodi:nodetypes="csssssccccccssssscc" />
        <path
           style="font-variation-settings:normal;vector-effect:none;fill:#b00031;fill-opacity:1;fill-rule:evenodd;stroke:none;stroke-width:1.03858;stroke-linecap:butt;stroke-linejoin:miter;stroke-miterlimit:4;stroke-dasharray:none;stroke-dashoffset:0;stroke-opacity:1;-inkscape-stroke:none;stop-color:#000000;stop-opacity:1"
           d="m 269.62539,220.7482 c -1.43576,-0.13963 -2.58044,0.30288 -2.56084,1.50218 0.94391,0.85652 1.34942,2.43518 1.48562,3.14008 0.1362,0.7049 0.0359,1.21914 -0.48562,1.89004 -1.043,1.3418 -3.12498,1.56875 -6.5006,2.72063 -6.75124,2.30377 -16.89306,2.52561 -27.90689,3.84639 -22.02767,2.64157 -39.03164,3.76107 -39.03164,3.76107 1.98346,-4.64758 6.32828,-4.41197 6.34903,-8.20969 0.27376,-0.89755 -3.14597,-1.31638 -5.09943,-0.10731 -4.26694,3.70137 -7.59152,6.75353 -10.69418,10.51311 l 1.88795,3.08438 c 0,0 26.13006,-2.88973 48.19776,-5.5361 11.03385,-1.32318 20.95601,-1.99856 27.80968,-4.33728 3.42683,-1.16936 5.95975,-1.49022 7.6409,-3.51958 0.63172,-0.76256 1.35238,-3.04699 1.06804,-4.73369 -0.21951,-1.30213 -1.14979,-3.09774 -2.15978,-4.01423 z"
           id="path2608"
           sodipodi:nodetypes="ccsssscccccssssc" />
        <path
           style="font-variation-settings:normal;vector-effect:none;fill:#b00031;fill-opacity:1;fill-rule:evenodd;stroke:none;stroke-width:1.03858;stroke-linecap:butt;stroke-linejoin:miter;stroke-miterlimit:4;stroke-dasharray:none;stroke-dashoffset:0;stroke-opacity:1;-inkscape-stroke:none;stop-color:#000000;stop-opacity:1"
           d="m 254.36185,220.33948 c -6.84997,3.24198 -7.15311,8.60912 -5.95953,12.79884 1.19358,4.18972 5.26293,8.75677 9.32121,12.40608 8.11656,7.29861 12.06046,9.33163 12.06046,9.33163 -3.71515,-0.10342 -7.89887,-1.41174 -8.13315,0.49304 -0.9483,2.97582 11.49137,3.47486 17.43787,2.70205 -1.39456,-7.57836 -3.79323,-13.21546 -7.73151,-14.90312 -1.68464,-0.14804 0.31242,4.72441 0.76985,9.39604 0,0 -3.62454,-1.73122 -11.60519,-8.90762 -3.99032,-3.5882 -7.37386,-7.3421 -8.47319,-11.20099 -1.09933,-3.85889 0.0776,-6.1205 4.95082,-9.53176 0.92816,-0.99528 -1.28985,-2.45913 -2.63764,-2.58419 z"
           id="path2620"
           sodipodi:nodetypes="csscccccsscc" />
      </g>
    </g>
  </g>
</svg>
