<svg version="1.1" viewBox="0 0 24 24" xmlns="http://www.w3.org/2000/svg">
 <path d="m9.9 23c-0.21-0.21-0.37-0.73-0.37-1.2-4.8e-4 -0.67-0.32-0.95-2-1.8l-2-0.98-1.1 0.79c-1.1 0.76-1.1 0.77-1.9 0.27-1.1-0.7-0.99-1.5 0.32-2.9 1-1.1 1.1-1.3 0.96-2.8-0.078-0.87-0.018-2.2 0.13-3.1 0.29-1.5-0.083-2.7-0.88-2.7-0.62 0-0.46-1.2 0.21-1.5 0.77-0.41 2.1-0.42 2.4-0.012 0.19 0.3 0.56 0.14 2.8-1.2 0.58-0.35 0.96-0.85 1-1.3 0.033-0.41 0.097-1.3 0.14-2 0.085-1.3 0.11-1.4 1.8-1.5 1.4-0.094 1.9 0.61 1.3 2.1-0.35 0.98-0.34 1.2 0.096 1.7 0.76 0.85 0.32 1.4-1.5 1.9-2.1 0.56-3.7 2.2-4.4 4.4-0.67 2.1-0.66 2.4 0.14 4.2 0.87 2 2 3 3.3 3 1.1 0 3.8-1.1 3.8-1.6 0-0.15 0.25-0.52 0.55-0.83 0.79-0.8 1.3-2.1 1.3-3.3 0-1.2-0.79-3.3-1.2-3.3-0.47 0-0.68-0.99-0.31-1.4 0.46-0.55 1.1-0.54 2.3 0.051 0.87 0.46 0.95 0.44 1.9-0.42 1.2-1.1 1.9-1.4 2.8-0.99 1.2 0.47 0.98 1.5-0.81 3.2-1.5 1.5-1.6 1.6-1.7 3.4-0.04 1.1-0.18 2.2-0.31 2.4-0.17 0.38 0.18 0.92 1.4 2.1 1.7 1.6 1.8 2.4 0.47 2.8-1 0.26-2-0.11-2.9-1.2l-0.82-0.91-2 1.3c-1.7 1.1-2 1.5-2.1 2.2-0.036 0.5-0.25 1-0.47 1.2-0.6 0.38-1.9 0.32-2.4-0.11zm0.45-9.5c-0.94-1-0.64-1.8 0.81-2.1 1-0.2 1.7 0.11 1.9 0.87 0.38 1.5-1.7 2.4-2.7 1.2z" fill="#b00031" stroke-width=".31"/>
</svg>
